Publication tracker reporting
…
Clean column names - it will make it easier to process and interpret the data.

dataclean <- janitor ::clean_names(data) 

We also want to make sure the date is the same across every entry so that it processes correctly when we filter it. as_date standardises all date data to yyyy-mm-dd. We also add a new column that extracts just the month and year for the month by month analysis below.

dataclean2 <- dataclean |>
  mutate(
    date_added_clean = as_date(date_added),
    date_added_month = month(date_added_clean),
    date_added_year = year(date_added_clean)) |>
   select(title, date, place, publication_year, publication_title, item_type, url, manual_tags, date_added, date_added_clean, date_added_month, date_added_year)
dataclean2

# A tibble: 4,014 × 12
   title          date  place publication_year publication_title item_type url  
   <chr>          <chr> <chr>            <dbl> <chr>             <chr>     <chr>
 1 Remote sensin… 2021… <NA>              2021 Natural and Appl… journalA… http…
 2 Strategic con… 2021  <NA>              2021 Management of Bi… journalA… http…
 3 Addressing th… 2021… <NA>              2021 Toxicon: X        journalA… http…
 4 Historical re… 2021… <NA>              2021 Victorian Natura… journalA… http…
 5 Introduction … 2021  Milt…             2021 <NA>              book      http…
 6 Biology of In… 2021… <NA>              2021 Invasive Plant S… journalA… http…
 7 Potential dis… 2021… <NA>              2021 New Zealand Jour… journalA… http…
 8 Population ge… 2021… <NA>              2021 Marine Mammal Sc… journalA… http…
 9 Survival of i… 2021… <NA>              2021 Austral Entomolo… journalA… http…
10 A Comprehensi… 2021… <NA>              2021 BioScience        journalA… http…
# ℹ 4,004 more rows
# ℹ 5 more variables: manual_tags <chr>, date_added <dttm>,
#   date_added_clean <date>, date_added_month <dbl>, date_added_year <dbl>
…
Top journal articles

This section analyses the ten most common journal articles mentioning, citing, using, acknowledging etc. the ALA across all time. It is worth checking that these journals are not preprint repositories (e.g. BioXriv), as, occasionally Zotero auto categorises them as journal articles instead.

These numbers might change subtly over time due to ongoing data cleaning, but will likely remain similar. They are included in the report.

grandtop10 <- dataclean2 |>
  filter(item_type == "journalArticle") |>
  group_by(publication_title) |>
  count() |>
   drop_na() |>
  arrange(desc(n)) 
grandtop10

# A tibble: 806 × 2
# Groups:   publication_title [806]
   publication_title                n
   <chr>                        <int>
 1 PLoS ONE                        67
 2 Zootaxa                         61
 3 Austral Ecology                 53
 4 Ecology and Evolution           50
 5 Austral Entomology              46
 6 Biological Conservation         36
 7 Diversity and Distributions     33
 8 Australian Journal of Botany    32
 9 Journal of Biogeography         32
10 Australian Zoologist            30
# ℹ 796 more rows
…
Be sure to remove the NA category using drop_na() as well.

top10currentyear <- dataclean2 |>
  filter(item_type == "journalArticle") |>
  filter(date_added_clean >= ymd("2022-06-30")) |>
  filter(date_added_clean <= ymd("2023-06-30")) |>
  filter(publication_year == c("2022", "2023")) |>
  group_by(publication_title) |>
  count() |>
  drop_na() |>
  arrange(desc(n)) 
top10currentyear

# A tibble: 110 × 2
# Groups:   publication_title [110]
   publication_title                                        n
   <chr>                                                <int>
 1 Austral Ecology                                          5
 2 PLOS ONE                                                 5
 3 Austral Entomology                                       3
 4 Australian Field Ornithology                             3
 5 Australian Zoologist                                     3
 6 Diversity                                                3
 7 Forests                                                  3
 8 Insects                                                  3
 9 PLoS One                                                 3
10 Alcheringa: An Australasian Journal of Palaeontology     2
# ℹ 100 more rows
…
