Visualising ALA Data using galah and ggplot2
…
search_fields("date")   #Search for fields containing 'date'

# A tibble: 21 × 4
   id              description                                       type  link 
   <chr>           <chr>                                             <chr> <chr>
 1 month           "Month of observation, specimen collection date.… fiel… <NA> 
 2 eventDate       "The ISO formatted date of observation, specimen… fiel… <NA> 
 3 cl10903         "Tenure of Australia's forests (2013) v2.0 Tenur… laye… http…
 4 cl10955         "National Indicative Aggregated Fire Extent Data… laye… http…
 5 lastLoadDate     <NA>                                             fiel… <NA> 
 6 datePrecision   "The precision of the date information for the r… fiel… <NA> 
 7 eventDateEnd     <NA>                                             fiel… <NA> 
 8 dateIdentified  "http://rs.tdwg.org/dwc/terms/dateIdentified"     fiel… <NA> 
 9 raw_eventDate    <NA>                                             fiel… <NA> 
10 firstLoadedDate  <NA>                                             fiel… <NA> 
# … with 11 more rows

search_fields("eventDate") |> #Search for values of that field using the ID 
  show_values()

! Search returned 4 matched fields.
• Showing values for 'eventDate'.

# A tibble: 10,000 × 2
   field     category            
   <chr>     <chr>               
 1 eventDate 1969-12-31T14:00:00Z
 2 eventDate 1979-12-31T13:00:00Z
 3 eventDate 1980-09-30T14:00:00Z
 4 eventDate 1998-12-31T13:00:00Z
 5 eventDate 1989-12-31T13:00:00Z
 6 eventDate 2000-12-31T13:00:00Z
 7 eventDate 1976-12-31T13:00:00Z
 8 eventDate 1992-02-29T13:00:00Z
 9 eventDate 1996-01-18T13:00:00Z
10 eventDate 2004-06-30T14:00:00Z
# … with 9,990 more rows
…
Ducksbyweek_scaled <- Ducksbyweek_table |>  pivot_wider(
  names_from = year,   #Take column names from 'year' data column
  values_from = count, #Take values from 'count' data column
  names_sort = TRUE)   #Order columns names (i.e. years)

Ducksbyweek_scaled$"2017" = (Ducksbyweek_scaled$"2017"/Allmelbrecords_data[5,2])*100 #Counts in 2017 column, divided by the overall number of records in 2017 (multiplied by 100) returns counts as a proportion of overall records
Ducksbyweek_scaled$"2018" = (Ducksbyweek_scaled$"2018"/Allmelbrecords_data[4,2])*100
Ducksbyweek_scaled$"2019" = (Ducksbyweek_scaled$"2019"/Allmelbrecords_data[3,2])*100
Ducksbyweek_scaled$"2020" = (Ducksbyweek_scaled$"2020"/Allmelbrecords_data[2,2])*100
Ducksbyweek_scaled$"2021" = (Ducksbyweek_scaled$"2021"/Allmelbrecords_data[1,2])*100

Ducksbyweek_scaled #View results

# A tibble: 1,826 × 7
   date        week `2017` `2018` `2019` `2020` `2021`
   <date>     <dbl>  <dbl>  <dbl>  <dbl>  <dbl>  <dbl>
 1 2017-01-01     1 0.0277     NA     NA     NA     NA
 2 2017-01-02     1 0.0178     NA     NA     NA     NA
 3 2017-01-03     1 0.0188     NA     NA     NA     NA
 4 2017-01-04     1 0.0196     NA     NA     NA     NA
 5 2017-01-05     1 0.0129     NA     NA     NA     NA
 6 2017-01-06     1 0.0147     NA     NA     NA     NA
 7 2017-01-07     1 0.0192     NA     NA     NA     NA
 8 2017-01-08     2 0.0182     NA     NA     NA     NA
 9 2017-01-09     2 0.0153     NA     NA     NA     NA
10 2017-01-10     2 0.0238     NA     NA     NA     NA
# … with 1,816 more rows
…
Now we can calculate the average (mean) weekly counts from 2017-19 without producing an error. We do this by using pivot_wider again, so that it’s possible to calculate the mean across rows using rowMeans.

Ducksbyweek_mean <- Ducksbyweek_grouped |> #Pivot wider again
  pivot_wider(names_from = year, 
              values_from = count, 
              names_sort = TRUE)

Ducksbyweek_mean$"2017_19_mean" = rowMeans(Ducksbyweek_mean[,2:4]) #Add row with 2017-19 average

Ducksbyweek_mean #View results

# A tibble: 53 × 7
    week `2017` `2018` `2019` `2020` `2021` `2017_19_mean`
   <dbl>  <dbl>  <dbl>  <dbl>  <dbl>  <dbl>          <dbl>
 1     1  0.131  0.146  0.281 0.184  0.137           0.186
 2     2  0.135  0.159  0.258 0.124  0.117           0.184
 3     3  0.134  0.131  0.231 0.164  0.126           0.165
 4     4  0.160  0.129  0.201 0.159  0.110           0.163
 5     5  0.150  0.136  0.162 0.104  0.127           0.149
 6     6  0.117  0.112  0.155 0.114  0.128           0.128
 7     7  0.133  0.148  0.164 0.0960 0.0984          0.148
 8     8  0.137  0.115  0.173 0.100  0.119           0.142
 9     9  0.116  0.121  0.116 0.0832 0.115           0.118
10    10  0.109  0.105  0.185 0.0763 0.105           0.133
# … with 43 more rows
…
